[gd_scene load_steps=4 format=2]

[ext_resource path="res://assets/images/Items/portal_yellow.png" type="Texture" id=1]
[ext_resource path="res://scripts/objects/ziel.gd" type="Script" id=2]

[sub_resource type="CapsuleShape2D" id=1]
radius = 115.0
height = 0.0

[node name="Ziel" type="Area2D"]
collision_layer = 4
script = ExtResource( 2 )

[node name="Sprite" type="Sprite" parent="."]
texture = ExtResource( 1 )

[node name="CollisionShape2D" type="CollisionShape2D" parent="."]
shape = SubResource( 1 )

[connection signal="body_entered" from="." to="." method="_on_Ziel_body_entered"]
